%YAML 1.1
%TAG !u! tag:unity3d.com,2011:
--- !u!21 &2100000
Material:
  serializedVersion: 6
  m_ObjectHideFlags: 0
  m_CorrespondingSourceObject: {fileID: 0}
  m_PrefabInstance: {fileID: 0}
  m_PrefabAsset: {fileID: 0}
  m_Name: M_TreeBirch_Leaves_Red
  m_Shader: {fileID: 4800000, guid: 82e95d87261d972419c3d3ac5425982f, type: 3}
  m_ShaderKeywords: 
  m_LightmapFlags: 4
  m_EnableInstancingVariants: 1
  m_DoubleSidedGI: 0
  m_CustomRenderQueue: -1
  stringTagMap: {}
  disabledShaderPasses: []
  m_SavedProperties:
    serializedVersion: 3
    m_TexEnvs:
    - _BumpMap:
        m_Texture: {fileID: 0}
        m_Scale: {x: 1, y: 1}
        m_Offset: {x: 0, y: 0}
    - _ColorVariationTexture:
        m_Texture: {fileID: 2800000, guid: e3adc16eb3921de48a178ce82c92cbd1, type: 3}
        m_Scale: {x: 2, y: 2}
        m_Offset: {x: 0, y: 0}
    - _DetailAlbedoMap:
        m_Texture: {fileID: 0}
        m_Scale: {x: 1, y: 1}
        m_Offset: {x: 0, y: 0}
    - _DetailMask:
        m_Texture: {fileID: 0}
        m_Scale: {x: 1, y: 1}
        m_Offset: {x: 0, y: 0}
    - _DetailNormalMap:
        m_Texture: {fileID: 0}
        m_Scale: {x: 1, y: 1}
        m_Offset: {x: 0, y: 0}
    - _EmissionMap:
        m_Texture: {fileID: 0}
        m_Scale: {x: 1, y: 1}
        m_Offset: {x: 0, y: 0}
    - _FoliageTexture:
        m_Texture: {fileID: 2800000, guid: a2ad996e66f54304d8ffe25139c6fcfb, type: 3}
        m_Scale: {x: 1, y: 1}
        m_Offset: {x: 0, y: 0}
    - _MainTex:
        m_Texture: {fileID: 0}
        m_Scale: {x: 1, y: 1}
        m_Offset: {x: 0, y: 0}
    - _MetallicGlossMap:
        m_Texture: {fileID: 0}
        m_Scale: {x: 1, y: 1}
        m_Offset: {x: 0, y: 0}
    - _OcclusionMap:
        m_Texture: {fileID: 0}
        m_Scale: {x: 1, y: 1}
        m_Offset: {x: 0, y: 0}
    - _ParallaxMap:
        m_Texture: {fileID: 0}
        m_Scale: {x: 1, y: 1}
        m_Offset: {x: 0, y: 0}
    - _texcoord:
        m_Texture: {fileID: 0}
        m_Scale: {x: 1, y: 1}
        m_Offset: {x: 0, y: 0}
    m_Floats:
    - _Alpha: 0.23
    - _AlphaCutoff: 0.598
    - _BumpScale: 1
    - _Color2Level: -11.01
    - _ColorBottomLevel: -9.68
    - _ColorBottomMaskFade: -0.094
    - _ColorMask: 0.033
    - _ColorMaskFade: -0.206
    - _Contrast: 0.2
    - _Cutoff: 0.5
    - _DetailNormalMapScale: 1
    - _DstBlend: 0
    - _Float0: 1
    - _GlossMapScale: 1
    - _Glossiness: 0.5
    - _GlossyReflections: 1
    - _InteractionAlpha: 1
    - _Metallic: 0
    - _Mode: 0
    - _OcclusionStrength: 1
    - _Parallax: 0.02
    - _Smoothness: 0.015
    - _SmoothnessTextureChannel: 0
    - _SpecularHighlights: 1
    - _SrcBlend: 1
    - _StuffSmoothness: 0
    - _TransAmbient: 0.033
    - _TransDirect: 0.481
    - _TransNormalDistortion: 0.182
    - _TransScattering: 1
    - _TransShadow: 1
    - _Translucency: 1.1
    - _UVSec: 0
    - _WindIntensity: 5
    - _WindScale: 2
    - _WindSpeed: 0.096
    - _WindTint: 0.5
    - _ZWrite: 1
    - __dirty: 0
    - _nteractionAlpha: 0
    m_Colors:
    - _Color: {r: 1, g: 1, b: 1, a: 1}
    - _Color1: {r: 0.8784314, g: 0.85750186, b: 0, a: 0}
    - _Color2: {r: 1, g: 0.34084028, b: 0.2588235, a: 0}
    - _ColorBottom: {r: 0.8396226, g: 0.29436016, b: 0.1544589, a: 0}
    - _ColorTop: {r: 0.990566, g: 0.76437867, b: 0.098122105, a: 0}
    - _EmissionColor: {r: 0, g: 0, b: 0, a: 1}
    - _Speed: {r: 0.16, g: 0.29, b: 0, a: 0}
  m_BuildTextureStacks: []
